{
  "success": true,
  "page": 10,
  "limit": 12,
  "total": 181,
  "totalPages": 16,
  "count": 12,
  "teachings": [
    {
      "title": "Paul's Thorn in the Flesh",
      "description": "Uncover the real meaning behind Paul's thorn in the flesh\" as revealed in Scripture. Discover the surprising truth!\"",
      "redirect": "https://www.awmi.net/browse-teaching/pauls-thorn-in-the-flesh",
      "category": "bible-study",
      "search_tags": [
        "pauls thorn flesh",
        "real meaning",
        "thorn in flesh",
        "revealed scripture",
        "surprising truth"
      ],
      "image": "",
      "formats": [
        "Video",
        "Audio",
        "Article"
      ],
      "author_speaker": "Andrew Wommack",
      "featured": "no",
      "status": "active",
      "date_added": "",
      "id": "pauls-thorn-in-the-flesh"
    },
    {
      "title": "Plain As Dirt",
      "description": "Transform your life by committing to God's Word. Discover insights on studying the Bible and planting His Word in your heart.",
      "redirect": "https://www.awmi.net/browse-teaching/plain-as-dirt",
      "category": "bible-study",
      "search_tags": [
        "plain as dirt",
        "transform life",
        "committing gods word",
        "studying bible",
        "planting word"
      ],
      "image": "",
      "formats": [
        "Video",
        "Audio",
        "Article"
      ],
      "author_speaker": "Andrew Wommack",
      "featured": "no",
      "status": "active",
      "date_added": "",
      "id": "plain-as-dirt"
    },
    {
      "title": "Positive Ministry of the Holy Spirit",
      "description": "God has designed you to live a life full of confidence and grace. Remove any traces of guilt and unworthiness from your faith walk in this free teaching!",
      "redirect": "https://www.awmi.net/browse-teaching/positive-ministry-of-the-holy-spirit",
      "category": "holy-spirit",
      "search_tags": [
        "positive ministry holy spirit",
        "confidence grace",
        "remove guilt",
        "unworthiness",
        "faith walk"
      ],
      "image": "",
      "formats": [
        "Video",
        "Audio",
        "Article"
      ],
      "author_speaker": "Andrew Wommack",
      "featured": "no",
      "status": "active",
      "date_added": "",
      "id": "positive-ministry-of-the-holy-spirit"
    },
    {
      "title": "Power of a Testimony",
      "description": "Testimonies can elevate your faith to receive from God! Discover how God is the answer to all your problems through these encouraging testimonies.",
      "redirect": "https://www.awmi.net/browse-teaching/power-of-a-testimony",
      "category": "faith",
      "search_tags": [
        "power testimony",
        "elevate faith",
        "receive from god",
        "answer problems",
        "encouraging testimonies"
      ],
      "image": "",
      "formats": [
        "Video",
        "Audio",
        "Article"
      ],
      "author_speaker": "Andrew Wommack",
      "featured": "no",
      "status": "active",
      "date_added": "",
      "id": "power-of-a-testimony"
    },
    {
      "title": "Power of Faith-Filled Words",
      "description": "If you change your words,  you'll change your life. Learn to speak from your God-given authority in Christ and experience more miracles today!",
      "redirect": "https://www.awmi.net/browse-teaching/power-of-faith-filled-words",
      "category": "faith",
      "search_tags": [
        "power faith filled words",
        "change words",
        "change life",
        "god given authority",
        "more miracles"
      ],
      "image": "",
      "formats": [
        "Video",
        "Audio",
        "Article"
      ],
      "author_speaker": "Andrew Wommack",
      "featured": "no",
      "status": "active",
      "date_added": "",
      "id": "power-of-faith-filled-words"
    },
    {
      "title": "Power of Hope",
      "description": "Your faith needs hope to work. Learn how you can use hope and your imagination to receive all God's promises!",
      "redirect": "https://www.awmi.net/browse-teaching/power-of-hope",
      "category": "faith",
      "search_tags": [
        "power of hope",
        "faith needs hope",
        "hope imagination",
        "receive gods promises"
      ],
      "image": "",
      "formats": [
        "Video",
        "Audio",
        "Article"
      ],
      "author_speaker": "Andrew Wommack",
      "featured": "no",
      "status": "active",
      "date_added": "",
      "id": "power-of-hope"
    },
    {
      "title": "Praise and Thanksgiving or Fear and Worry?You Choose",
      "description": "Don't be afraid; God is bigger than anything that could ever come your way. Jump into thanksgiving and praise and remove all the lies of fear from your heart!",
      "redirect": "https://www.awmi.net/browse-teaching/praise-and-thanksgiving-or-fear-and-worryyou-choose",
      "category": "worship",
      "search_tags": [
        "praise thanksgiving",
        "fear worry",
        "you choose",
        "god bigger",
        "thanksgiving praise",
        "lies of fear"
      ],
      "image": "",
      "formats": [
        "Video",
        "Audio",
        "Article"
      ],
      "author_speaker": "Andrew Wommack",
      "featured": "no",
      "status": "active",
      "date_added": "",
      "id": "praise-and-thanksgiving-or-fear-and-worry-you-choose"
    },
    {
      "title": "Prosperity Nuggets",
      "description": "Understand God's purpose for prosperity: to establish His covenant on earth through His people.",
      "redirect": "https://www.awmi.net/browse-teaching/prosperity-nuggets",
      "category": "finances",
      "search_tags": [
        "prosperity nuggets",
        "gods purpose",
        "prosperity",
        "establish covenant",
        "through his people"
      ],
      "image": "",
      "formats": [
        "Video",
        "Audio",
        "Article"
      ],
      "author_speaker": "Andrew Wommack",
      "featured": "no",
      "status": "active",
      "date_added": "",
      "id": "prosperity-nuggets"
    },
    {
      "title": "Proverbs",
      "description": "Unlock timeless wisdom with Andrew's verse-by-verse teaching on Proverbs. Choose wisdom and follow God for a blessed life.",
      "redirect": "https://www.awmi.net/browse-teaching/proverbs",
      "category": "bible-study",
      "search_tags": [
        "proverbs",
        "timeless wisdom",
        "verse by verse",
        "choose wisdom",
        "follow god",
        "blessed life"
      ],
      "image": "",
      "formats": [
        "Video",
        "Audio",
        "Article"
      ],
      "author_speaker": "Andrew Wommack",
      "featured": "no",
      "status": "active",
      "date_added": "",
      "id": "proverbs"
    },
    {
      "title": "Psalm 119 in Twenty-Two Days",
      "description": "Discover the life-changing power of Psalm 119 in just twenty-two days. Dive deep into God's Word,  renew your heart,  and experience true victory through Scripture.",
      "redirect": "https://www.awmi.net/browse-teaching/psalm-119-in-twenty-two-days",
      "category": "bible-study",
      "search_tags": [
        "psalm 119",
        "twenty two days",
        "life changing power",
        "dive deep",
        "gods word",
        "true victory"
      ],
      "image": "",
      "formats": [
        "Video",
        "Audio",
        "Article"
      ],
      "author_speaker": "Andrew Wommack",
      "featured": "no",
      "status": "active",
      "date_added": "",
      "id": "psalm-119-in-twenty-two-days"
    },
    {
      "title": "Psychology vs. Christianity",
      "description": "Psychology or Christianity? Where should you turn? Find all the life-giving answers you need when faced with life's problems!",
      "redirect": "https://www.awmi.net/browse-teaching/psychology-vs-christianity",
      "category": "christian-living",
      "search_tags": [
        "psychology vs christianity",
        "where turn",
        "life giving answers",
        "lifes problems"
      ],
      "image": "",
      "formats": [
        "Video",
        "Audio",
        "Article"
      ],
      "author_speaker": "Andrew Wommack",
      "featured": "no",
      "status": "active",
      "date_added": "",
      "id": "psychology-vs-christianity"
    },
    {
      "title": "Recession? No Thanks?I'm Not Participating!",
      "description": "Build your life on God's economy,  not the world's. Say goodbye to economic uncertainties and find your stability in God's unlimited provision!",
      "redirect": "https://www.awmi.net/browse-teaching/recession-no-thanksim-not-participating",
      "category": "finances",
      "search_tags": [
        "recession no thanks",
        "not participating",
        "gods economy",
        "economic uncertainties",
        "unlimited provision"
      ],
      "image": "",
      "formats": [
        "Video",
        "Audio",
        "Article"
      ],
      "author_speaker": "Andrew Wommack",
      "featured": "no",
      "status": "active",
      "date_added": "",
      "id": "recession-no-thanks-im-not-participating"
    }
  ],
  "hasNextPage": true,
  "hasPrevPage": true,
  "lastUpdated": "2025-08-28T23:53:44.216Z"
}