{
  "success": true,
  "page": 1,
  "limit": 12,
  "total": 181,
  "totalPages": 16,
  "count": 12,
  "teachings": [
    {
      "title": "10 Reasons It's Better to Have the Holy Spirit ABBB",
      "description": "Andrew Wommack explores Jesus' wisdom on the Holy Spirit's ministry,  guiding deeper understanding and spiritual growth in this teaching.",
      "redirect": "https://www.awmi.net/browse-teaching/10-reasons-its-better-to-have-the-holy-spirit",
      "category": "holy-spirit",
      "search_tags": [
        "Holy Spirit"
      ],
      "image": "https://cdn.awmi.net/zype-test/ten-reasons-its-better-to-have-the-holy-spirit.webp",
      "formats": [
        "Video",
        "Audio"
      ],
      "author_speaker": "Andrew Wommack",
      "featured": "no",
      "status": "active",
      "date_added": "Wed Jul 24 2024 01:00:00 GMT-0600 (Mountain Daylight Time)",
      "id": "10-reasons-its-better-to-have-the-holy-spirit"
    },
    {
      "title": "A Believer or a Disciple?",
      "description": "Discover the difference between being a believer and a true disciple of Jesus. This teaching challenges surface-level Christianity and calls you to a deeper,  life-changing relationship rooted in obedience,  freedom,  and faith in Christ alone. This teaching challenges surface-level Christianity and calls you to a deeper, life-changing relationship rooted in obedience, freedom, and faith in Christ alone.",
      "redirect": "https://www.awmi.net/browse-teaching/a-believer-or-a-disciple",
      "category": "discipleship",
      "search_tags": [
        "believer",
        "disciple"
      ],
      "image": "https://cdn.awmi.net/zype-test/aboad-aco-thumbnail-1920x1080.webp",
      "formats": [
        "Video",
        "Audio",
        "Article"
      ],
      "author_speaker": "Andrew Wommack",
      "featured": "yes",
      "status": "active",
      "date_added": "Wed Apr 23 2025 01:00:00 GMT-0600 (Mountain Daylight Time)",
      "id": "a-believer-or-a-disciple"
    },
    {
      "title": "A Better Way to Pray",
      "description": "Want to absolutely transform your prayer life? Get a fresh perspective on God's love and learn how to pray from a place of authority!",
      "redirect": "https://www.awmi.net/browse-teaching/a-better-way-to-pray-2",
      "category": "prayer",
      "search_tags": [
        "prayer",
        "authority"
      ],
      "image": "https://cdn.awmi.net/zype-test/better-way-to-pray.webp",
      "formats": [
        "Video",
        "Audio",
        "Article"
      ],
      "author_speaker": "Andrew Wommack",
      "featured": "no",
      "status": "active",
      "date_added": "Fri Jun 21 2024 01:00:00 GMT-0600 (Mountain Daylight Time)",
      "id": "a-better-way-to-pray"
    },
    {
      "title": "A Call to Prayer",
      "description": "Are you praying effectively? Powerful prayers are essential to turning America back to God. Find out how to pray for your nation!",
      "redirect": "https://www.awmi.net/browse-teaching/a-call-to-prayer",
      "category": "prayer",
      "search_tags": [
        "prayer",
        "america"
      ],
      "image": "https://cdn.awmi.net/zype-test/A-Call-To-Prayer.jpg",
      "formats": [
        "Video",
        "Audio",
        "Article"
      ],
      "author_speaker": "Andrew Wommack",
      "featured": "no",
      "status": "active",
      "date_added": "Fri Jun 21 2024 01:00:00 GMT-0600 (Mountain Daylight Time)",
      "id": "a-call-to-prayer"
    },
    {
      "title": "A Christian Perspective on War",
      "description": "Andrew speaks about important scriptural concepts related to defending oneself and waging war.",
      "redirect": "https://www.awmi.net/browse-teaching/a-christian-perspective-on-war",
      "category": "prayer, culture",
      "search_tags": [
        "war",
        "christian perspective"
      ],
      "image": "https://cdn.awmi.net/zype-test/a-christaian-perspective-on-war.png",
      "formats": [
        "Video",
        "Audio",
        "Article"
      ],
      "author_speaker": "Andrew Wommack",
      "featured": "no",
      "status": "active",
      "date_added": "Thu Jul 25 2024 01:00:00 GMT-0600 (Mountain Daylight Time)",
      "id": "a-christian-perspective-on-war"
    },
    {
      "title": "A Place Called \"There\"",
      "description": "Experience the story of Elijah like never before! Find your place called there",
      "redirect": "https://www.awmi.net/browse-teaching/a-place-called-there",
      "category": "",
      "search_tags": [
        "faith"
      ],
      "image": "https://cdn.awmi.net/zype-test/a-place-called-there.jpg",
      "formats": [
        "Video",
        "Audio",
        "Article"
      ],
      "author_speaker": "Andrew Wommack",
      "featured": "no",
      "status": "active",
      "date_added": "Fri Jun 21 2024 01:00:00 GMT-0600 (Mountain Daylight Time)",
      "id": "a-place-called-there"
    },
    {
      "title": "Anger Management",
      "description": "Want to know why you're so angry? There's godly and ungodly anger. Uncover the difference between the two and find real peace and restoration!",
      "redirect": "https://www.awmi.net/browse-teaching/anger-management",
      "category": "emotions",
      "search_tags": [
        "anger",
        "godly anger"
      ],
      "image": "https://cdn.awmi.net/zype-test/anger-management.webp",
      "formats": [
        "Video",
        "Audio",
        "Article"
      ],
      "author_speaker": "Andrew Wommack",
      "featured": "no",
      "status": "active",
      "date_added": "Fri Jun 21 2024 01:00:00 GMT-0600 (Mountain Daylight Time)",
      "id": "anger-management"
    },
    {
      "title": "Are You Satisfied With Jesus",
      "description": "Learn to connect with God beyond the senses. Discover the key to joy and peace by approaching Him in spirit and truth.",
      "redirect": "https://www.awmi.net/browse-teaching/are-you-satisfied-with-jesus",
      "category": "relationship-with-god",
      "search_tags": [
        "satisfied",
        "jesus"
      ],
      "image": "https://cdn.awmi.net/zype-test/Are-you-satisfied-with-Jesus.jpg",
      "formats": [
        "Video",
        "Audio",
        "Article"
      ],
      "author_speaker": "Andrew Wommack",
      "featured": "no",
      "status": "active",
      "date_added": "Wed Jul 24 2024 01:00:00 GMT-0600 (Mountain Daylight Time)",
      "id": "are-you-satisfied-with-jesus"
    },
    {
      "title": "As I Have Loved You",
      "description": "Discover the power of unconditional love in this teaching on Jesus' final commandment to His disciples. Transform your relationships for the better today!",
      "redirect": "https://www.awmi.net/browse-teaching/as-i-have-loved-you",
      "category": "love",
      "search_tags": [
        "unconditional love",
        "commandment"
      ],
      "image": "https://cdn.awmi.net/zype-test/As-I-Have-Loved-You.png",
      "formats": [
        "Video",
        "Audio",
        "Article"
      ],
      "author_speaker": "Andrew Wommack",
      "featured": "no",
      "status": "active",
      "date_added": "Thu Jun 20 2024 01:00:00 GMT-0600 (Mountain Daylight Time)",
      "id": "as-i-have-loved-you"
    },
    {
      "title": "Believer's Authority",
      "description": "Ready to start living the victorious Christian life? Uncover the spiritual battles at play in your life and learn to wield your God-given authority!",
      "redirect": "https://www.awmi.net/browse-teaching/believers-authority",
      "category": "faith",
      "search_tags": [
        "authority",
        "spiritual battles"
      ],
      "image": "https://cdn.awmi.net/zype-test/believers-authority.webp",
      "formats": [
        "Video",
        "Audio",
        "Article"
      ],
      "author_speaker": "Andrew Wommack",
      "featured": "no",
      "status": "active",
      "date_added": "Thu Jun 20 2024 01:00:00 GMT-0600 (Mountain Daylight Time)",
      "id": "believers-authority"
    },
    {
      "title": "Biblical Worldview",
      "description": "Biblical Worldview: Embrace God's Word as your foundation,  not popular culture. Andrew Wommack explores vital truths for a Christian worldview.",
      "redirect": "https://www.awmi.net/browse-teaching/biblical-worldview",
      "category": "christian-living",
      "search_tags": [
        "biblical worldview",
        "gods word"
      ],
      "image": "https://cdn.awmi.net/zype-test/biblical-worldview.jpg",
      "formats": [
        "Video",
        "Audio",
        "Article"
      ],
      "author_speaker": "Andrew Wommack",
      "featured": "no",
      "status": "active",
      "date_added": "Wed Jul 24 2024 01:00:00 GMT-0600 (Mountain Daylight Time)",
      "id": "biblical-worldview"
    },
    {
      "title": "Blessings and Miracles",
      "description": "Did you know it's better to live in God's blessings than to constantly need miracles? Find out how you can go from miracles to blessings today!",
      "redirect": "https://www.awmi.net/browse-teaching/blessings-and-miracles",
      "category": "faith",
      "search_tags": [
        "blessings",
        "miracles"
      ],
      "image": "https://cdn.awmi.net/zype-test/Blessings-and-Miracles.jpg",
      "formats": [
        "Video",
        "Audio",
        "Article"
      ],
      "author_speaker": "Andrew Wommack",
      "featured": "no",
      "status": "active",
      "date_added": "Thu Jun 20 2024 01:00:00 GMT-0600 (Mountain Daylight Time)",
      "id": "blessings-and-miracles"
    }
  ],
  "hasNextPage": true,
  "hasPrevPage": false,
  "lastUpdated": "2025-08-28T23:38:41.274Z"
}