{
  "success": true,
  "page": 8,
  "limit": 12,
  "total": 181,
  "totalPages": 16,
  "count": 12,
  "teachings": [
    {
      "title": "It Begins with a Sure Foundation",
      "description": "Are you ready to experience the miraculous power of God in your life? Plant the seed of God's Word in your heart,  receive your miracle,  and shape your destiny!",
      "redirect": "https://www.awmi.net/browse-teaching/it-begins-with-a-sure-foundation",
      "category": "faith",
      "search_tags": [
        "sure foundation",
        "miraculous power",
        "plant seed",
        "gods word",
        "receive miracle",
        "shape destiny"
      ],
      "image": "",
      "formats": [
        "Video",
        "Audio",
        "Article"
      ],
      "author_speaker": "Andrew Wommack",
      "featured": "no",
      "status": "active",
      "date_added": "",
      "id": "it-begins-with-a-sure-foundation"
    },
    {
      "title": "Jesus' Farewell Address",
      "description": "Discover hope and faith in Jesus' final words to His disciples,  offering comfort and guidance during life's greatest crises.",
      "redirect": "https://www.awmi.net/browse-teaching/jesus-farewell-address",
      "category": "bible-study",
      "search_tags": [
        "jesus farewell address",
        "final words",
        "disciples",
        "comfort",
        "guidance",
        "crises"
      ],
      "image": "",
      "formats": [
        "Video",
        "Audio",
        "Article"
      ],
      "author_speaker": "Andrew Wommack",
      "featured": "no",
      "status": "active",
      "date_added": "",
      "id": "jesus-farewell-address"
    },
    {
      "title": "Killing Sacred Cows",
      "description": "Is God really in absolute control? Traditional religious doctrines might be rendering God's Word powerless in your life. Find out the shocking truth!",
      "redirect": "https://www.awmi.net/browse-teaching/killing-sacred-cows",
      "category": "christian-living",
      "search_tags": [
        "killing sacred cows",
        "god in control",
        "religious doctrines",
        "gods word",
        "shocking truth"
      ],
      "image": "",
      "formats": [
        "Video",
        "Audio",
        "Article"
      ],
      "author_speaker": "Andrew Wommack",
      "featured": "no",
      "status": "active",
      "date_added": "",
      "id": "killing-sacred-cows"
    },
    {
      "title": "Knowing God",
      "description": "Are you ready to revolutionize your relationship with the Lord? The greatest treasure on earth is knowing God. Find out how to live a vibrant life in Him!",
      "redirect": "https://www.awmi.net/browse-teaching/knowing-god",
      "category": "relationship-with-god",
      "search_tags": [
        "knowing god",
        "revolutionize relationship",
        "greatest treasure",
        "vibrant life",
        "relationship with god"
      ],
      "image": "",
      "formats": [
        "Video",
        "Audio",
        "Article"
      ],
      "author_speaker": "Andrew Wommack",
      "featured": "no",
      "status": "active",
      "date_added": "",
      "id": "knowing-god"
    },
    {
      "title": "Least of These",
      "description": "Explore why Jesus praised a thief and a master in Andrew's thought-provoking teaching series that delves into surprising biblical lessons.",
      "redirect": "https://www.awmi.net/browse-teaching/least-of-these",
      "category": "bible-study",
      "search_tags": [
        "least of these",
        "jesus praised",
        "thief",
        "master",
        "surprising biblical lessons"
      ],
      "image": "",
      "formats": [
        "Video",
        "Audio",
        "Article"
      ],
      "author_speaker": "Andrew Wommack",
      "featured": "no",
      "status": "active",
      "date_added": "",
      "id": "least-of-these"
    },
    {
      "title": "Lessons from David",
      "description": "We all face giants in life?problems that seem insurmountable. Like David did when he battled Goliath,  learn how you,  too,  can boldly tackle life's challenges!",
      "redirect": "https://www.awmi.net/browse-teaching/lessons-from-david",
      "category": "faith",
      "search_tags": [
        "lessons from david",
        "face giants",
        "insurmountable problems",
        "david goliath",
        "tackle challenges"
      ],
      "image": "",
      "formats": [
        "Video",
        "Audio",
        "Article"
      ],
      "author_speaker": "Andrew Wommack",
      "featured": "no",
      "status": "active",
      "date_added": "",
      "id": "lessons-from-david"
    },
    {
      "title": "Lessons from Elijah",
      "description": "God has supernatural provision for you,  just as He did for the prophet Elijah! Discover everything you need to succeed in your place called there!\"\"",
      "redirect": "https://www.awmi.net/browse-teaching/lessons-from-elijah",
      "category": "faith",
      "search_tags": [
        "lessons from elijah",
        "supernatural provision",
        "prophet elijah",
        "succeed",
        "place called there"
      ],
      "image": "",
      "formats": [
        "Video",
        "Audio",
        "Article"
      ],
      "author_speaker": "Andrew Wommack",
      "featured": "no",
      "status": "active",
      "date_added": "",
      "id": "lessons-from-elijah"
    },
    {
      "title": "Lessons from Joseph",
      "description": "Learn about Joseph's uncommon integrity,  enduring hardship,  resisting temptation,  and rising to power while trusting God's timing.",
      "redirect": "https://www.awmi.net/browse-teaching/lessons-from-joseph",
      "category": "christian-living",
      "search_tags": [
        "lessons from joseph",
        "uncommon integrity",
        "enduring hardship",
        "resisting temptation",
        "gods timing"
      ],
      "image": "",
      "formats": [
        "Video",
        "Audio",
        "Article"
      ],
      "author_speaker": "Andrew Wommack",
      "featured": "no",
      "status": "active",
      "date_added": "",
      "id": "lessons-from-joseph"
    },
    {
      "title": "Lessons from the Christmas Story",
      "description": "What is Christmas all about? What's the real reason for the season? Find out in this thought-provoking free teaching!",
      "redirect": "https://www.awmi.net/browse-teaching/lessons-from-the-christmas-story",
      "category": "christian-living",
      "search_tags": [
        "lessons christmas story",
        "christmas about",
        "real reason",
        "season",
        "thought provoking"
      ],
      "image": "",
      "formats": [
        "Video",
        "Audio",
        "Article"
      ],
      "author_speaker": "Andrew Wommack",
      "featured": "no",
      "status": "active",
      "date_added": "",
      "id": "lessons-from-the-christmas-story"
    },
    {
      "title": "Life at Conception",
      "description": "Roe v. Wade overturned in 2022! States now decide abortion laws?believers urged to boldly advocate truth amid criticism.",
      "redirect": "https://www.awmi.net/browse-teaching/life-at-conception",
      "category": "christian-living",
      "search_tags": [
        "life at conception",
        "roe v wade",
        "overturned",
        "abortion laws",
        "advocate truth"
      ],
      "image": "",
      "formats": [
        "Video",
        "Audio",
        "Article"
      ],
      "author_speaker": "Andrew Wommack",
      "featured": "no",
      "status": "active",
      "date_added": "",
      "id": "life-at-conception"
    },
    {
      "title": "Life's Three Most Important Questions",
      "description": "Discover the three crucial questions that shape your life. Answering them correctly can determine your future and purpose.",
      "redirect": "https://www.awmi.net/browse-teaching/lifes-three-most-important-questions",
      "category": "christian-living",
      "search_tags": [
        "lifes three questions",
        "crucial questions",
        "shape life",
        "determine future",
        "purpose"
      ],
      "image": "",
      "formats": [
        "Video",
        "Audio",
        "Article"
      ],
      "author_speaker": "Andrew Wommack",
      "featured": "no",
      "status": "active",
      "date_added": "",
      "id": "lifes-three-most-important-questions"
    },
    {
      "title": "Lisa Paxton's Testimony",
      "description": "Want to build your faith and receive a miracle? Testimonies do just that! Find Jesus,  your Healer,  in one woman's story of being healed from cerebral palsy.",
      "redirect": "https://www.awmi.net/browse-teaching/lisa-paxtons-testimony",
      "category": "healing",
      "search_tags": [
        "lisa paxtons testimony",
        "build faith",
        "receive miracle",
        "testimonies",
        "healed cerebral palsy"
      ],
      "image": "",
      "formats": [
        "Video",
        "Audio",
        "Article"
      ],
      "author_speaker": "Andrew Wommack",
      "featured": "no",
      "status": "active",
      "date_added": "",
      "id": "lisa-paxtons-testimony"
    }
  ],
  "hasNextPage": true,
  "hasPrevPage": true,
  "lastUpdated": "2025-08-28T23:38:41.274Z"
}