{
  "success": true,
  "page": 12,
  "limit": 12,
  "total": 181,
  "totalPages": 16,
  "count": 12,
  "teachings": [
    {
      "title": "Spiritual Authority",
      "description": "As a born-again child of God,  you don't have to live life afraid of the devil. Find out how to use your spiritual authority,  like Tori did!",
      "redirect": "https://www.awmi.net/browse-teaching/spiritual-authority",
      "category": "faith",
      "search_tags": [
        "spiritual authority",
        "born again",
        "child of god",
        "not afraid devil",
        "use authority"
      ],
      "image": "",
      "formats": [
        "Video",
        "Audio",
        "Article"
      ],
      "author_speaker": "Andrew Wommack",
      "featured": "no",
      "status": "active",
      "date_added": "",
      "id": "spiritual-authority"
    },
    {
      "title": "Staying Full of God",
      "description": "Do you want to stay in a place of constant fellowship with the Lord? Discover the four keys to staying on fire in your relationship with God!",
      "redirect": "https://www.awmi.net/browse-teaching/staying-full-of-god",
      "category": "relationship-with-god",
      "search_tags": [
        "staying full god",
        "constant fellowship",
        "four keys",
        "staying on fire",
        "relationship with god"
      ],
      "image": "",
      "formats": [
        "Video",
        "Audio",
        "Article"
      ],
      "author_speaker": "Andrew Wommack",
      "featured": "no",
      "status": "active",
      "date_added": "",
      "id": "staying-full-of-god"
    },
    {
      "title": "Staying Positive in a Negative World",
      "description": "How do you stay positive in a negative world? Learn the secrets to staying encouraged despite the darkness!",
      "redirect": "https://www.awmi.net/browse-teaching/staying-positive-in-a-negative-world",
      "category": "emotions",
      "search_tags": [
        "staying positive",
        "negative world",
        "stay positive",
        "secrets staying encouraged",
        "despite darkness"
      ],
      "image": "",
      "formats": [
        "Video",
        "Audio",
        "Article"
      ],
      "author_speaker": "Andrew Wommack",
      "featured": "no",
      "status": "active",
      "date_added": "",
      "id": "staying-positive-in-a-negative-world"
    },
    {
      "title": "Systemically Anti-Racist",
      "description": "Andrew Wommack and David & Tim Barton debunk systemic racism claims,  exploring America's history and pursuit of freedom for all.",
      "redirect": "https://www.awmi.net/browse-teaching/systemically-anti-racist",
      "category": "christian-living",
      "search_tags": [
        "systemically anti racist",
        "debunk systemic racism",
        "americas history",
        "pursuit freedom"
      ],
      "image": "",
      "formats": [
        "Video",
        "Audio",
        "Article"
      ],
      "author_speaker": "Andrew Wommack",
      "featured": "no",
      "status": "active",
      "date_added": "",
      "id": "systemically-anti-racist"
    },
    {
      "title": "Taking the Limits off God",
      "description": "Can God be limited? Andrew answers this important question in this teaching series.",
      "redirect": "https://www.awmi.net/browse-teaching/taking-the-limits-off-god",
      "category": "faith",
      "search_tags": [
        "taking limits off god",
        "can god limited",
        "important question",
        "teaching series"
      ],
      "image": "",
      "formats": [
        "Video",
        "Audio",
        "Article"
      ],
      "author_speaker": "Andrew Wommack",
      "featured": "no",
      "status": "active",
      "date_added": "",
      "id": "taking-the-limits-off-god"
    },
    {
      "title": "Ten Godly Leadership Essentials",
      "description": "Andrew Wommack guides leaders to strengthen their faith,  manage conflict,  and ignite God's vision for success and impactful witness.",
      "redirect": "https://www.awmi.net/browse-teaching/ten-godly-leadership-essentials",
      "category": "christian-living",
      "search_tags": [
        "ten godly leadership",
        "essentials",
        "strengthen faith",
        "manage conflict",
        "gods vision"
      ],
      "image": "",
      "formats": [
        "Video",
        "Audio",
        "Article"
      ],
      "author_speaker": "Andrew Wommack",
      "featured": "no",
      "status": "active",
      "date_added": "",
      "id": "ten-godly-leadership-essentials"
    },
    {
      "title": "The Battle for America's Soul: The Church's Historical Role in Politics",
      "description": "Why is there a push to silence Christian voices when it comes to politics? Find out how your influence is being undermined and why your involvement is critical for shaping the future.",
      "redirect": "https://www.awmi.net/browse-teaching/the-battle-for-americas-soul-the-churchs-historical-role-in-politics",
      "category": "christian-living",
      "search_tags": [
        "battle americas soul",
        "churchs role politics",
        "silence christian voices",
        "influence undermined",
        "shaping future"
      ],
      "image": "",
      "formats": [
        "Video",
        "Audio",
        "Article"
      ],
      "author_speaker": "Andrew Wommack",
      "featured": "no",
      "status": "active",
      "date_added": "",
      "id": "the-battle-for-americas-soul"
    },
    {
      "title": "The Fear of the Lord",
      "description": "What's the difference between being afraid and having a holy fear of God? Discover the difference and be equipped to stand against evil!",
      "redirect": "https://www.awmi.net/browse-teaching/the-fear-of-the-lord",
      "category": "christian-living",
      "search_tags": [
        "fear of lord",
        "being afraid",
        "holy fear god",
        "stand against evil"
      ],
      "image": "",
      "formats": [
        "Video",
        "Audio",
        "Article"
      ],
      "author_speaker": "Andrew Wommack",
      "featured": "no",
      "status": "active",
      "date_added": "",
      "id": "the-fear-of-the-lord"
    },
    {
      "title": "The Fruit of Discipleship",
      "description": "Discover how present-day disciples of the Lord are bringing forth fruit throughout the world.",
      "redirect": "https://www.awmi.net/browse-teaching/the-fruit-of-discipleship",
      "category": "discipleship",
      "search_tags": [
        "fruit of discipleship",
        "present day disciples",
        "bringing forth fruit",
        "throughout world"
      ],
      "image": "",
      "formats": [
        "Video",
        "Audio",
        "Article"
      ],
      "author_speaker": "Andrew Wommack",
      "featured": "no",
      "status": "active",
      "date_added": "",
      "id": "the-fruit-of-discipleship"
    },
    {
      "title": "The Gospel of Peace",
      "description": "Discover the true meaning of peace proclaimed at Jesus' birth. Andrew explains why conflicts persist and the nature of divine peace.",
      "redirect": "https://www.awmi.net/browse-teaching/the-gospel-of-peace/",
      "category": "grace",
      "search_tags": [
        "gospel of peace",
        "true meaning peace",
        "jesus birth",
        "conflicts persist",
        "divine peace"
      ],
      "image": "",
      "formats": [
        "Video",
        "Audio",
        "Article"
      ],
      "author_speaker": "Andrew Wommack",
      "featured": "no",
      "status": "active",
      "date_added": "",
      "id": "the-gospel-of-peace"
    },
    {
      "title": "The Gospel: The Power of God",
      "description": "The Gospel is the most basic,  foundational message of the New Testament,  yet it's the most misunderstood.",
      "redirect": "https://www.awmi.net/browse-teaching/the-gospel-the-power-of-god",
      "category": "grace",
      "search_tags": [
        "gospel power of god",
        "basic foundational",
        "new testament",
        "most misunderstood"
      ],
      "image": "",
      "formats": [
        "Video",
        "Audio",
        "Article"
      ],
      "author_speaker": "Andrew Wommack",
      "featured": "no",
      "status": "active",
      "date_added": "",
      "id": "the-gospel-the-power-of-god"
    },
    {
      "title": "The Grace in Giving",
      "description": "Discover how grace impacts giving. Andrew's teaching shifts your perspective from performance to a biblical understanding of grace.",
      "redirect": "https://www.awmi.net/browse-teaching/the-grace-in-giving",
      "category": "finances",
      "search_tags": [
        "grace in giving",
        "grace impacts giving",
        "shift perspective",
        "biblical understanding"
      ],
      "image": "",
      "formats": [
        "Video",
        "Audio",
        "Article"
      ],
      "author_speaker": "Andrew Wommack",
      "featured": "no",
      "status": "active",
      "date_added": "",
      "id": "the-grace-in-giving"
    }
  ],
  "hasNextPage": true,
  "hasPrevPage": true,
  "lastUpdated": "2025-08-29T09:53:40.279Z"
}