{
  "success": true,
  "page": 7,
  "limit": 12,
  "total": 181,
  "totalPages": 16,
  "count": 12,
  "teachings": [
    {
      "title": "How to Get Along with People",
      "description": "Learn to overcome envy and strife in relationships with this teaching. Discover effective strategies for resolving conflict and improving connections.",
      "redirect": "https://www.awmi.net/browse-teaching/how-to-get-along-with-people",
      "category": "relationships",
      "search_tags": [
        "get along people",
        "overcome envy",
        "strife",
        "relationships",
        "resolving conflict",
        "improving connections"
      ],
      "image": "",
      "formats": [
        "Video",
        "Audio",
        "Article"
      ],
      "author_speaker": "Andrew Wommack",
      "featured": "no",
      "status": "active",
      "date_added": "",
      "id": "how-to-get-along-with-people"
    },
    {
      "title": "How to Hear God's Voice",
      "description": "Learning to recognize God's voice is where the real adventure begins. Embrace your journey,  hearing Him one day at a time!",
      "redirect": "https://www.awmi.net/browse-teaching/how-to-hear-gods-voice",
      "category": "holy-spirit",
      "search_tags": [
        "hear gods voice",
        "recognize gods voice",
        "real adventure",
        "embrace journey",
        "hearing god"
      ],
      "image": "",
      "formats": [
        "Video",
        "Audio",
        "Article"
      ],
      "author_speaker": "Andrew Wommack",
      "featured": "no",
      "status": "active",
      "date_added": "",
      "id": "how-to-hear-gods-voice"
    },
    {
      "title": "How to Overcome Doubt",
      "description": "Overcome your doubts by placing your faith in a surer word of prophecy (2 Pet. 1:19)? God's precious promises. Find out how!",
      "redirect": "https://www.awmi.net/browse-teaching/how-to-overcome-doubt",
      "category": "faith",
      "search_tags": [
        "overcome doubt",
        "doubts",
        "faith",
        "surer word",
        "prophecy",
        "gods promises"
      ],
      "image": "",
      "formats": [
        "Video",
        "Audio",
        "Article"
      ],
      "author_speaker": "Andrew Wommack",
      "featured": "no",
      "status": "active",
      "date_added": "",
      "id": "how-to-overcome-doubt"
    },
    {
      "title": "How to Prepare Your Heart",
      "description": "Ready to commit yourself to righteousness and transform your life? Discover how you can prepare your heart to seek the Lord!",
      "redirect": "https://www.awmi.net/browse-teaching/how-to-prepare-your-heart",
      "category": "christian-living",
      "search_tags": [
        "prepare your heart",
        "commit to righteousness",
        "transform life",
        "seek the lord",
        "heart preparation"
      ],
      "image": "",
      "formats": [
        "Video",
        "Audio",
        "Article"
      ],
      "author_speaker": "Andrew Wommack",
      "featured": "no",
      "status": "active",
      "date_added": "",
      "id": "how-to-prepare-your-heart"
    },
    {
      "title": "How to Reap 100-Fold in a Year of Famine",
      "description": "Discover how to walk in God's supernatural provision. This teaching reveals biblical principles of sowing in faith,  trusting God's Word,  and receiving abundance?even in the midst of famine.",
      "redirect": "https://www.awmi.net/browse-teaching/how-to-reap-100/",
      "category": "finances",
      "search_tags": [
        "reap 100 fold",
        "year of famine",
        "supernatural provision",
        "sowing in faith",
        "trusting gods word",
        "abundance"
      ],
      "image": "",
      "formats": [
        "Video",
        "Audio",
        "Article"
      ],
      "author_speaker": "Andrew Wommack",
      "featured": "no",
      "status": "active",
      "date_added": "",
      "id": "how-to-reap-100-fold-in-a-year-of-famine"
    },
    {
      "title": "How to Receive a Miracle - Part 1",
      "description": "Discover how to receive a miracle from God through the power of His Word. Plant,  believe,  and receive!",
      "redirect": "https://www.awmi.net/browse-teaching/how-to-receive-a-miracle-part-1",
      "category": "faith",
      "search_tags": [
        "receive miracle",
        "part 1",
        "power of his word",
        "plant believe receive",
        "miracles"
      ],
      "image": "",
      "formats": [
        "Video",
        "Audio",
        "Article"
      ],
      "author_speaker": "Andrew Wommack",
      "featured": "no",
      "status": "active",
      "date_added": "",
      "id": "how-to-receive-a-miracle-part-1"
    },
    {
      "title": "How to Receive a Miracle - Part 2",
      "description": "As a born-again believer,  you already have the faith you need to receive your miracle. Learn how to utilize the faith you've been given in Christ!",
      "redirect": "https://www.awmi.net/browse-teaching/how-to-receive-a-miracle-part-2",
      "category": "faith",
      "search_tags": [
        "receive miracle",
        "part 2",
        "born again believer",
        "faith you need",
        "utilize faith",
        "given in christ"
      ],
      "image": "",
      "formats": [
        "Video",
        "Audio",
        "Article"
      ],
      "author_speaker": "Andrew Wommack",
      "featured": "no",
      "status": "active",
      "date_added": "",
      "id": "how-to-receive-a-miracle-part-2"
    },
    {
      "title": "How to Receive God's Best",
      "description": "Stop settling for less. Learn to walk in God's blessings instead of always seeking miracles.",
      "redirect": "https://www.awmi.net/browse-teaching/how-to-receive-gods-best",
      "category": "faith",
      "search_tags": [
        "receive gods best",
        "stop settling",
        "gods blessings",
        "seeking miracles",
        "walking in blessings"
      ],
      "image": "",
      "formats": [
        "Video",
        "Audio",
        "Article"
      ],
      "author_speaker": "Andrew Wommack",
      "featured": "no",
      "status": "active",
      "date_added": "",
      "id": "how-to-receive-gods-best"
    },
    {
      "title": "How to: Deal with Grief",
      "description": "Feeling stuck in waves of grief? Find comfort,  hope,  and healing in the midst of sorrow with powerful insights and biblical truths on overcoming loss.",
      "redirect": "https://www.awmi.net/browse-teaching/how-to-deal-with-grief",
      "category": "emotions",
      "search_tags": [
        "deal with grief",
        "waves of grief",
        "comfort",
        "hope",
        "healing",
        "sorrow",
        "overcoming loss"
      ],
      "image": "",
      "formats": [
        "Video",
        "Audio",
        "Article"
      ],
      "author_speaker": "Andrew Wommack",
      "featured": "no",
      "status": "active",
      "date_added": "",
      "id": "how-to-deal-with-grief"
    },
    {
      "title": "Humility: God's Path to More Grace",
      "description": "Explore how God's kingdom differs from the world's system of selfishness and pride,  emphasizing humility and service over self-promotion.",
      "redirect": "https://www.awmi.net/browse-teaching/humility-gods-path-to-more-grace",
      "category": "christian-living",
      "search_tags": [
        "humility",
        "gods path",
        "more grace",
        "gods kingdom",
        "selfishness pride",
        "service over self promotion"
      ],
      "image": "",
      "formats": [
        "Video",
        "Audio",
        "Article"
      ],
      "author_speaker": "Andrew Wommack",
      "featured": "no",
      "status": "active",
      "date_added": "",
      "id": "humility-gods-path-to-more-grace"
    },
    {
      "title": "In God We Trust",
      "description": "Learn to trust God during financial struggles. This two-part teaching helps overcome fear and strengthens your faith in Him.",
      "redirect": "https://www.awmi.net/browse-teaching/in-god-we-trust",
      "category": "finances",
      "search_tags": [
        "in god we trust",
        "trust god",
        "financial struggles",
        "overcome fear",
        "strengthen faith"
      ],
      "image": "",
      "formats": [
        "Video",
        "Audio",
        "Article"
      ],
      "author_speaker": "Andrew Wommack",
      "featured": "no",
      "status": "active",
      "date_added": "",
      "id": "in-god-we-trust"
    },
    {
      "title": "Is Jesus Enough",
      "description": "Discover why sin isn't an issue with God. Live free from condemnation and bask in the grace and forgiveness provided through Jesus!",
      "redirect": "https://www.awmi.net/browse-teaching/is-jesus-enough",
      "category": "grace",
      "search_tags": [
        "is jesus enough",
        "sin not issue",
        "free from condemnation",
        "grace",
        "forgiveness through jesus"
      ],
      "image": "",
      "formats": [
        "Video",
        "Audio",
        "Article"
      ],
      "author_speaker": "Andrew Wommack",
      "featured": "no",
      "status": "active",
      "date_added": "",
      "id": "is-jesus-enough"
    }
  ],
  "hasNextPage": true,
  "hasPrevPage": true,
  "lastUpdated": "2025-08-29T12:23:41.020Z"
}